\relax 
\providecommand\hyper@newdestlabel[2]{}
\@nameuse{bbl@beforestart}
\providecommand\HyperFirstAtBeginDocument{\AtBeginDocument}
\HyperFirstAtBeginDocument{\ifx\hyper@anchor\@undefined
\global\let\oldcontentsline\contentsline
\gdef\contentsline#1#2#3#4{\oldcontentsline{#1}{#2}{#3}}
\global\let\oldnewlabel\newlabel
\gdef\newlabel#1#2{\newlabelxx{#1}#2}
\gdef\newlabelxx#1#2#3#4#5#6{\oldnewlabel{#1}{{#2}{#3}}}
\AtEndDocument{\ifx\hyper@anchor\@undefined
\let\contentsline\oldcontentsline
\let\newlabel\oldnewlabel
\fi}
\fi}
\global\let\hyper@last\relax 
\gdef\HyperFirstAtBeginDocument#1{#1}
\providecommand\HyField@AuxAddToFields[1]{}
\providecommand\HyField@AuxAddToCoFields[2]{}
\babel@aux{english}{}
\newlabel{index::doc}{{}{1}{}{section*.2}{}}
\@writefile{toc}{\contentsline {chapter}{\numberline {1}Primeros pasos}{1}{chapter.1}\protected@file@percent }
\@writefile{lof}{\addvspace {10\p@ }}
\@writefile{lot}{\addvspace {10\p@ }}
\newlabel{getstarted:primeros-pasos}{{1}{1}{Primeros pasos}{chapter.1}{}}
\newlabel{getstarted::doc}{{1}{1}{Primeros pasos}{chapter.1}{}}
\@writefile{toc}{\contentsline {section}{\numberline {1.1}Instalación}{1}{section.1.1}\protected@file@percent }
\newlabel{getstarted:instalacion}{{1.1}{1}{Instalación}{section.1.1}{}}
\@writefile{toc}{\contentsline {subsection}{\numberline {1.1.1}Iniciar nuevo proyecto}{1}{subsection.1.1.1}\protected@file@percent }
\newlabel{getstarted:iniciar-nuevo-proyecto}{{1.1.1}{1}{Iniciar nuevo proyecto}{subsection.1.1.1}{}}
\@writefile{toc}{\contentsline {subsection}{\numberline {1.1.2}Trabajar con un proyecto que ya usa JSee}{1}{subsection.1.1.2}\protected@file@percent }
\newlabel{getstarted:trabajar-con-un-proyecto-que-ya-usa-jsee}{{1.1.2}{1}{Trabajar con un proyecto que ya usa JSee}{subsection.1.1.2}{}}
\@writefile{toc}{\contentsline {subsection}{\numberline {1.1.3}Iniciando el servidor}{1}{subsection.1.1.3}\protected@file@percent }
\newlabel{getstarted:iniciando-el-servidor}{{1.1.3}{1}{Iniciando el servidor}{subsection.1.1.3}{}}
\@writefile{toc}{\contentsline {subsection}{\numberline {1.1.4}Estructura de trabajo}{2}{subsection.1.1.4}\protected@file@percent }
\newlabel{getstarted:estructura-de-trabajo}{{1.1.4}{2}{Estructura de trabajo}{subsection.1.1.4}{}}
\@writefile{toc}{\contentsline {subsection}{\numberline {1.1.5}Aplicaciones incluidas en JSee}{2}{subsection.1.1.5}\protected@file@percent }
\newlabel{getstarted:aplicaciones-incluidas-en-jsee}{{1.1.5}{2}{Aplicaciones incluidas en JSee}{subsection.1.1.5}{}}
\@writefile{toc}{\contentsline {chapter}{\numberline {2}Aplicaciones}{3}{chapter.2}\protected@file@percent }
\@writefile{lof}{\addvspace {10\p@ }}
\@writefile{lot}{\addvspace {10\p@ }}
\newlabel{apps:aplicaciones}{{2}{3}{Aplicaciones}{chapter.2}{}}
\newlabel{apps::doc}{{2}{3}{Aplicaciones}{chapter.2}{}}
\@writefile{toc}{\contentsline {section}{\numberline {2.1}Crear una aplicación}{3}{section.2.1}\protected@file@percent }
\newlabel{apps:crear-una-aplicacion}{{2.1}{3}{Crear una aplicación}{section.2.1}{}}
\@writefile{toc}{\contentsline {section}{\numberline {2.2}Programacion de aplicacion}{3}{section.2.2}\protected@file@percent }
\newlabel{apps:programacion-de-aplicacion}{{2.2}{3}{Programacion de aplicacion}{section.2.2}{}}
\@writefile{toc}{\contentsline {chapter}{\numberline {3}Sistema de documentacion}{5}{chapter.3}\protected@file@percent }
\@writefile{lof}{\addvspace {10\p@ }}
\@writefile{lot}{\addvspace {10\p@ }}
\newlabel{documentation:sistema-de-documentacion}{{3}{5}{Sistema de documentacion}{chapter.3}{}}
\newlabel{documentation::doc}{{3}{5}{Sistema de documentacion}{chapter.3}{}}
\@writefile{toc}{\contentsline {chapter}{\numberline {4}Rutas de vistas}{7}{chapter.4}\protected@file@percent }
\@writefile{lof}{\addvspace {10\p@ }}
\@writefile{lot}{\addvspace {10\p@ }}
\newlabel{routes:rutas-de-vistas}{{4}{7}{Rutas de vistas}{chapter.4}{}}
\newlabel{routes::doc}{{4}{7}{Rutas de vistas}{chapter.4}{}}
\@writefile{toc}{\contentsline {chapter}{\numberline {5}Rutas API}{9}{chapter.5}\protected@file@percent }
\@writefile{lof}{\addvspace {10\p@ }}
\@writefile{lot}{\addvspace {10\p@ }}
\newlabel{apis:rutas-api}{{5}{9}{Rutas API}{chapter.5}{}}
\newlabel{apis::doc}{{5}{9}{Rutas API}{chapter.5}{}}
\@writefile{toc}{\contentsline {chapter}{\numberline {6}Middlewares}{11}{chapter.6}\protected@file@percent }
\@writefile{lof}{\addvspace {10\p@ }}
\@writefile{lot}{\addvspace {10\p@ }}
\newlabel{middlewares:middlewares}{{6}{11}{Middlewares}{chapter.6}{}}
\newlabel{middlewares::doc}{{6}{11}{Middlewares}{chapter.6}{}}
\@writefile{toc}{\contentsline {chapter}{\numberline {7}Modelos}{13}{chapter.7}\protected@file@percent }
\@writefile{lof}{\addvspace {10\p@ }}
\@writefile{lot}{\addvspace {10\p@ }}
\newlabel{models:modelos}{{7}{13}{Modelos}{chapter.7}{}}
\newlabel{models::doc}{{7}{13}{Modelos}{chapter.7}{}}
\@writefile{toc}{\contentsline {chapter}{\numberline {8}Extención de modelos}{15}{chapter.8}\protected@file@percent }
\@writefile{lof}{\addvspace {10\p@ }}
\@writefile{lot}{\addvspace {10\p@ }}
\newlabel{fields_methods:extencion-de-modelos}{{8}{15}{Extención de modelos}{chapter.8}{}}
\newlabel{fields_methods::doc}{{8}{15}{Extención de modelos}{chapter.8}{}}
\@writefile{toc}{\contentsline {section}{\numberline {8.1}Extención de campos}{15}{section.8.1}\protected@file@percent }
\newlabel{fields_methods:extencion-de-campos}{{8.1}{15}{Extención de campos}{section.8.1}{}}
\@writefile{toc}{\contentsline {section}{\numberline {8.2}Extención de metodos}{15}{section.8.2}\protected@file@percent }
\newlabel{fields_methods:extencion-de-metodos}{{8.2}{15}{Extención de metodos}{section.8.2}{}}
\@writefile{toc}{\contentsline {chapter}{\numberline {9}Filtros}{17}{chapter.9}\protected@file@percent }
\@writefile{lof}{\addvspace {10\p@ }}
\@writefile{lot}{\addvspace {10\p@ }}
\newlabel{filters:filtros}{{9}{17}{Filtros}{chapter.9}{}}
\newlabel{filters::doc}{{9}{17}{Filtros}{chapter.9}{}}
\@writefile{toc}{\contentsline {chapter}{\numberline {10}Señales}{19}{chapter.10}\protected@file@percent }
\@writefile{lof}{\addvspace {10\p@ }}
\@writefile{lot}{\addvspace {10\p@ }}
\newlabel{signals:senales}{{10}{19}{Señales}{chapter.10}{}}
\newlabel{signals::doc}{{10}{19}{Señales}{chapter.10}{}}
\@writefile{toc}{\contentsline {section}{\numberline {10.1}VuApp}{19}{section.10.1}\protected@file@percent }
\newlabel{signals:vuapp}{{10.1}{19}{VuApp}{section.10.1}{}}
\@writefile{toc}{\contentsline {chapter}{\numberline {11}Sistema de plantillas}{21}{chapter.11}\protected@file@percent }
\@writefile{lof}{\addvspace {10\p@ }}
\@writefile{lot}{\addvspace {10\p@ }}
\newlabel{templates:sistema-de-plantillas}{{11}{21}{Sistema de plantillas}{chapter.11}{}}
\newlabel{templates::doc}{{11}{21}{Sistema de plantillas}{chapter.11}{}}
\@writefile{toc}{\contentsline {chapter}{\numberline {12}Vistas}{23}{chapter.12}\protected@file@percent }
\@writefile{lof}{\addvspace {10\p@ }}
\@writefile{lot}{\addvspace {10\p@ }}
\newlabel{views:vistas}{{12}{23}{Vistas}{chapter.12}{}}
\newlabel{views::doc}{{12}{23}{Vistas}{chapter.12}{}}
\@writefile{toc}{\contentsline {section}{\numberline {12.1}ResourcesView}{23}{section.12.1}\protected@file@percent }
\newlabel{views:resourcesview}{{12.1}{23}{ResourcesView}{section.12.1}{}}
\@writefile{toc}{\contentsline {chapter}{\numberline {13}Motor de formularios}{25}{chapter.13}\protected@file@percent }
\@writefile{lof}{\addvspace {10\p@ }}
\@writefile{lot}{\addvspace {10\p@ }}
\newlabel{forms:motor-de-formularios}{{13}{25}{Motor de formularios}{chapter.13}{}}
\newlabel{forms::doc}{{13}{25}{Motor de formularios}{chapter.13}{}}
\@writefile{toc}{\contentsline {section}{\numberline {13.1}Creando formularios}{25}{section.13.1}\protected@file@percent }
\newlabel{forms:creando-formularios}{{13.1}{25}{Creando formularios}{section.13.1}{}}
\@writefile{toc}{\contentsline {section}{\numberline {13.2}Widgets}{26}{section.13.2}\protected@file@percent }
\newlabel{forms:widgets}{{13.2}{26}{Widgets}{section.13.2}{}}
\@writefile{toc}{\contentsline {section}{\numberline {13.3}Componentes}{26}{section.13.3}\protected@file@percent }
\newlabel{forms:componentes}{{13.3}{26}{Componentes}{section.13.3}{}}
\@writefile{toc}{\contentsline {chapter}{\numberline {14}Componentes}{27}{chapter.14}\protected@file@percent }
\@writefile{lof}{\addvspace {10\p@ }}
\@writefile{lot}{\addvspace {10\p@ }}
\newlabel{components:componentes}{{14}{27}{Componentes}{chapter.14}{}}
\newlabel{components::doc}{{14}{27}{Componentes}{chapter.14}{}}
\@writefile{toc}{\contentsline {section}{\numberline {14.1}Como crear/integrar un componente}{27}{section.14.1}\protected@file@percent }
\newlabel{components:como-crear-integrar-un-componente}{{14.1}{27}{Como crear/integrar un componente}{section.14.1}{}}
\@writefile{toc}{\contentsline {subsection}{\numberline {14.1.1}Componente de la propia aplicacion o de uso como libreria}{27}{subsection.14.1.1}\protected@file@percent }
\newlabel{components:componente-de-la-propia-aplicacion-o-de-uso-como-libreria}{{14.1.1}{27}{Componente de la propia aplicacion o de uso como libreria}{subsection.14.1.1}{}}
\@writefile{toc}{\contentsline {subsection}{\numberline {14.1.2}Componentes distribuidos por rutas}{28}{subsection.14.1.2}\protected@file@percent }
\newlabel{components:componentes-distribuidos-por-rutas}{{14.1.2}{28}{Componentes distribuidos por rutas}{subsection.14.1.2}{}}
\@writefile{toc}{\contentsline {chapter}{\numberline {15}Lista de componentes}{29}{chapter.15}\protected@file@percent }
\@writefile{lof}{\addvspace {10\p@ }}
\@writefile{lot}{\addvspace {10\p@ }}
\newlabel{list_components:lista-de-componentes}{{15}{29}{Lista de componentes}{chapter.15}{}}
\newlabel{list_components::doc}{{15}{29}{Lista de componentes}{chapter.15}{}}
\@writefile{toc}{\contentsline {chapter}{\numberline {16}Widgets}{31}{chapter.16}\protected@file@percent }
\@writefile{lof}{\addvspace {10\p@ }}
\@writefile{lot}{\addvspace {10\p@ }}
\newlabel{widgets:widgets}{{16}{31}{Widgets}{chapter.16}{}}
\newlabel{widgets::doc}{{16}{31}{Widgets}{chapter.16}{}}
\@writefile{toc}{\contentsline {section}{\numberline {16.1}Como crear un widget}{31}{section.16.1}\protected@file@percent }
\newlabel{widgets:como-crear-un-widget}{{16.1}{31}{Como crear un widget}{section.16.1}{}}
\@writefile{toc}{\contentsline {chapter}{\numberline {17}Lista de widgets}{33}{chapter.17}\protected@file@percent }
\@writefile{lof}{\addvspace {10\p@ }}
\@writefile{lot}{\addvspace {10\p@ }}
\newlabel{list_widgets:lista-de-widgets}{{17}{33}{Lista de widgets}{chapter.17}{}}
\newlabel{list_widgets::doc}{{17}{33}{Lista de widgets}{chapter.17}{}}
\@writefile{toc}{\contentsline {chapter}{\numberline {18}Permisos y grupos}{35}{chapter.18}\protected@file@percent }
\@writefile{lof}{\addvspace {10\p@ }}
\@writefile{lot}{\addvspace {10\p@ }}
\newlabel{permissions_groups:permisos-y-grupos}{{18}{35}{Permisos y grupos}{chapter.18}{}}
\newlabel{permissions_groups::doc}{{18}{35}{Permisos y grupos}{chapter.18}{}}
\@writefile{toc}{\contentsline {section}{\numberline {18.1}Grupos}{35}{section.18.1}\protected@file@percent }
\newlabel{permissions_groups:grupos}{{18.1}{35}{Grupos}{section.18.1}{}}
\@writefile{toc}{\contentsline {chapter}{\numberline {19}Aplicación Dashboard}{37}{chapter.19}\protected@file@percent }
\@writefile{lof}{\addvspace {10\p@ }}
\@writefile{lot}{\addvspace {10\p@ }}
\newlabel{apps/dashboard/doc/index:aplicacion-dashboard}{{19}{37}{Aplicación Dashboard}{chapter.19}{}}
\newlabel{apps/dashboard/doc/index::doc}{{19}{37}{Aplicación Dashboard}{chapter.19}{}}
\@writefile{toc}{\contentsline {section}{\numberline {19.1}admin}{37}{section.19.1}\protected@file@percent }
\newlabel{apps/dashboard/doc/admin:admin}{{19.1}{37}{admin}{section.19.1}{}}
\newlabel{apps/dashboard/doc/admin::doc}{{19.1}{37}{admin}{section.19.1}{}}
\@writefile{toc}{\contentsline {chapter}{\numberline {20}Indices and tables}{39}{chapter.20}\protected@file@percent }
\@writefile{lof}{\addvspace {10\p@ }}
\@writefile{lot}{\addvspace {10\p@ }}
\newlabel{index:indices-and-tables}{{20}{39}{Indices and tables}{chapter.20}{}}
